3 Attribute data operations
…
The geometry column of sf objects is typically called geometry or geom but any name can be used. The following command, for example, creates a geometry column named g:

world

Simple feature collection with 177 features and 10 fields
Geometry type: MULTIPOLYGON
Dimension:     XY
Bounding box:  xmin: -180 ymin: -89.9 xmax: 180 ymax: 83.64513
Geodetic CRS:  WGS 84
# A tibble: 177 × 11
   iso_a2 name_long continent region_un subregion type  area_km2     pop lifeExp
 * <chr>  <chr>     <chr>     <chr>     <chr>     <chr>    <dbl>   <dbl>   <dbl>
 1 FJ     Fiji      Oceania   Oceania   Melanesia Sove…   1.93e4  8.86e5    70.0
 2 TZ     Tanzania  Africa    Africa    Eastern … Sove…   9.33e5  5.22e7    64.2
 3 EH     Western … Africa    Africa    Northern… Inde…   9.63e4 NA         NA  
 4 CA     Canada    North Am… Americas  Northern… Sove…   1.00e7  3.55e7    82.0
 5 US     United S… North Am… Americas  Northern… Coun…   9.51e6  3.19e8    78.8
 6 KZ     Kazakhst… Asia      Asia      Central … Sove…   2.73e6  1.73e7    71.6
 7 UZ     Uzbekist… Asia      Asia      Central … Sove…   4.61e5  3.08e7    71.0
 8 PG     Papua Ne… Oceania   Oceania   Melanesia Sove…   4.65e5  7.76e6    65.2
 9 ID     Indonesia Asia      Asia      South-Ea… Sove…   1.82e6  2.55e8    68.9
10 AR     Argentina South Am… Americas  South Am… Sove…   2.78e6  4.30e7    76.3
# ℹ 167 more rows
# ℹ 2 more variables: gdpPercap <dbl>, geom <MULTIPOLYGON [°]>
…
world[, 1:3]    # subset columns by position

Simple feature collection with 177 features and 3 fields
Geometry type: MULTIPOLYGON
Dimension:     XY
Bounding box:  xmin: -180 ymin: -89.9 xmax: 180 ymax: 83.64513
Geodetic CRS:  WGS 84
# A tibble: 177 × 4
   iso_a2 name_long        continent                                        geom
   <chr>  <chr>            <chr>                              <MULTIPOLYGON [°]>
 1 FJ     Fiji             Oceania       (((-180 -16.55522, -179.9174 -16.50178…
 2 TZ     Tanzania         Africa        (((33.90371 -0.95, 31.86617 -1.02736, …
 3 EH     Western Sahara   Africa        (((-8.66559 27.65643, -8.817828 27.656…
 4 CA     Canada           North America (((-132.71 54.04001, -133.18 54.16998,…
 5 US     United States    North America (((-171.7317 63.78252, -171.7911 63.40…
 6 KZ     Kazakhstan       Asia          (((87.35997 49.21498, 86.82936 49.8266…
 7 UZ     Uzbekistan       Asia          (((55.96819 41.30864, 57.09639 41.3223…
 8 PG     Papua New Guinea Oceania       (((141.0002 -2.600151, 141.0171 -5.859…
 9 ID     Indonesia        Asia          (((104.37 -1.084843, 104.0108 -1.05921…
10 AR     Argentina        South America (((-68.63401 -52.63637, -68.63335 -54.…
# ℹ 167 more rows
…
world[, c("name_long", "pop")] # columns by name

Simple feature collection with 177 features and 2 fields
Geometry type: MULTIPOLYGON
Dimension:     XY
Bounding box:  xmin: -180 ymin: -89.9 xmax: 180 ymax: 83.64513
Geodetic CRS:  WGS 84
# A tibble: 177 × 3
   name_long              pop                                               geom
   <chr>                <dbl>                                 <MULTIPOLYGON [°]>
 1 Fiji                885806 (((-180 -16.55522, -179.9174 -16.50178, -179.7933…
 2 Tanzania          52234869 (((33.90371 -0.95, 31.86617 -1.02736, 30.76986 -1…
 3 Western Sahara          NA (((-8.66559 27.65643, -8.817828 27.65643, -8.7948…
 4 Canada            35535348 (((-132.71 54.04001, -133.18 54.16998, -133.2397 …
 5 United States    318622525 (((-171.7317 63.78252, -171.7911 63.40585, -171.5…
 6 Kazakhstan        17288285 (((87.35997 49.21498, 86.82936 49.82667, 85.54127…
 7 Uzbekistan        30757700 (((55.96819 41.30864, 57.09639 41.32231, 56.93222…
 8 Papua New Guinea   7755785 (((141.0002 -2.600151, 141.0171 -5.859022, 141.03…
 9 Indonesia        255131116 (((104.37 -1.084843, 104.0108 -1.059212, 103.4376…
10 Argentina         42981515 (((-68.63401 -52.63637, -68.63335 -54.8695, -67.5…
# ℹ 167 more rows

world[, c(T, T, F, F, F, F, F, T, T, F, F)] # by logical indices

Simple feature collection with 177 features and 4 fields
Geometry type: MULTIPOLYGON
Dimension:     XY
Bounding box:  xmin: -180 ymin: -89.9 xmax: 180 ymax: 83.64513
Geodetic CRS:  WGS 84
# A tibble: 177 × 5
   iso_a2 name_long              pop lifeExp                                geom
   <chr>  <chr>                <dbl>   <dbl>                  <MULTIPOLYGON [°]>
 1 FJ     Fiji                885806    70.0 (((-180 -16.55522, -179.9174 -16.5…
 2 TZ     Tanzania          52234869    64.2 (((33.90371 -0.95, 31.86617 -1.027…
 3 EH     Western Sahara          NA    NA   (((-8.66559 27.65643, -8.817828 27…
 4 CA     Canada            35535348    82.0 (((-132.71 54.04001, -133.18 54.16…
 5 US     United States    318622525    78.8 (((-171.7317 63.78252, -171.7911 6…
 6 KZ     Kazakhstan        17288285    71.6 (((87.35997 49.21498, 86.82936 49.…
 7 UZ     Uzbekistan        30757700    71.0 (((55.96819 41.30864, 57.09639 41.…
 8 PG     Papua New Guinea   7755785    65.2 (((141.0002 -2.600151, 141.0171 -5…
 9 ID     Indonesia        255131116    68.9 (((104.37 -1.084843, 104.0108 -1.0…
10 AR     Argentina         42981515    76.3 (((-68.63401 -52.63637, -68.63335 …
# ℹ 167 more rows
…
world1 = select(world, name_long, pop)

names(world1)

[1] "name_long" "pop"       "geom"     

world1

Simple feature collection with 177 features and 2 fields
Geometry type: MULTIPOLYGON
Dimension:     XY
Bounding box:  xmin: -180 ymin: -89.9 xmax: 180 ymax: 83.64513
Geodetic CRS:  WGS 84
# A tibble: 177 × 3
   name_long              pop                                               geom
   <chr>                <dbl>                                 <MULTIPOLYGON [°]>
 1 Fiji                885806 (((-180 -16.55522, -179.9174 -16.50178, -179.7933…
 2 Tanzania          52234869 (((33.90371 -0.95, 31.86617 -1.02736, 30.76986 -1…
 3 Western Sahara          NA (((-8.66559 27.65643, -8.817828 27.65643, -8.7948…
 4 Canada            35535348 (((-132.71 54.04001, -133.18 54.16998, -133.2397 …
 5 United States    318622525 (((-171.7317 63.78252, -171.7911 63.40585, -171.5…
 6 Kazakhstan        17288285 (((87.35997 49.21498, 86.82936 49.82667, 85.54127…
 7 Uzbekistan        30757700 (((55.96819 41.30864, 57.09639 41.32231, 56.93222…
 8 Papua New Guinea   7755785 (((141.0002 -2.600151, 141.0171 -5.859022, 141.03…
 9 Indonesia        255131116 (((104.37 -1.084843, 104.0108 -1.059212, 103.4376…
10 Argentina         42981515 (((-68.63401 -52.63637, -68.63335 -54.8695, -67.5…
# ℹ 167 more rows
…
names(world2)

[1] "name_long" "continent" "region_un" "subregion" "type"      "area_km2" 
[7] "pop"       "geom"     

world2

Simple feature collection with 177 features and 7 fields
Geometry type: MULTIPOLYGON
Dimension:     XY
Bounding box:  xmin: -180 ymin: -89.9 xmax: 180 ymax: 83.64513
Geodetic CRS:  WGS 84
# A tibble: 177 × 8
   name_long        continent     region_un subregion     type  area_km2     pop
   <chr>            <chr>         <chr>     <chr>         <chr>    <dbl>   <dbl>
 1 Fiji             Oceania       Oceania   Melanesia     Sove…   1.93e4  8.86e5
 2 Tanzania         Africa        Africa    Eastern Afri… Sove…   9.33e5  5.22e7
 3 Western Sahara   Africa        Africa    Northern Afr… Inde…   9.63e4 NA     
 4 Canada           North America Americas  Northern Ame… Sove…   1.00e7  3.55e7
 5 United States    North America Americas  Northern Ame… Coun…   9.51e6  3.19e8
 6 Kazakhstan       Asia          Asia      Central Asia  Sove…   2.73e6  1.73e7
 7 Uzbekistan       Asia          Asia      Central Asia  Sove…   4.61e5  3.08e7
 8 Papua New Guinea Oceania       Oceania   Melanesia     Sove…   4.65e5  7.76e6
 9 Indonesia        Asia          Asia      South-Easter… Sove…   1.82e6  2.55e8
10 Argentina        South America Americas  South America Sove…   2.78e6  4.30e7
# ℹ 167 more rows
# ℹ 1 more variable: geom <MULTIPOLYGON [°]>
…
# all columns except subregion and area_km2 (inclusive)
world3 = select(world, -subregion, -area_km2)

Subset and rename columns at the same time with the new_name = old_name syntax:

world4 = select(world, name_long, population = pop)
world4

Simple feature collection with 177 features and 2 fields
Geometry type: MULTIPOLYGON
Dimension:     XY
Bounding box:  xmin: -180 ymin: -89.9 xmax: 180 ymax: 83.64513
Geodetic CRS:  WGS 84
# A tibble: 177 × 3
   name_long        population                                              geom
   <chr>                 <dbl>                                <MULTIPOLYGON [°]>
 1 Fiji                 885806 (((-180 -16.55522, -179.9174 -16.50178, -179.793…
 2 Tanzania           52234869 (((33.90371 -0.95, 31.86617 -1.02736, 30.76986 -…
 3 Western Sahara           NA (((-8.66559 27.65643, -8.817828 27.65643, -8.794…
 4 Canada             35535348 (((-132.71 54.04001, -133.18 54.16998, -133.2397…
 5 United States     318622525 (((-171.7317 63.78252, -171.7911 63.40585, -171.…
 6 Kazakhstan         17288285 (((87.35997 49.21498, 86.82936 49.82667, 85.5412…
 7 Uzbekistan         30757700 (((55.96819 41.30864, 57.09639 41.32231, 56.9322…
 8 Papua New Guinea    7755785 (((141.0002 -2.600151, 141.0171 -5.859022, 141.0…
 9 Indonesia         255131116 (((104.37 -1.084843, 104.0108 -1.059212, 103.437…
10 Argentina          42981515 (((-68.63401 -52.63637, -68.63335 -54.8695, -67.…
# ℹ 167 more rows
…
world_coffee = left_join(world, coffee_data)

Joining with `by = join_by(name_long)`

#> Joining with `by = join_by(name_long)`
 
world_coffee

Simple feature collection with 177 features and 12 fields
Geometry type: MULTIPOLYGON
Dimension:     XY
Bounding box:  xmin: -180 ymin: -89.9 xmax: 180 ymax: 83.64513
Geodetic CRS:  WGS 84
# A tibble: 177 × 13
   iso_a2 name_long continent region_un subregion type  area_km2     pop lifeExp
   <chr>  <chr>     <chr>     <chr>     <chr>     <chr>    <dbl>   <dbl>   <dbl>
 1 FJ     Fiji      Oceania   Oceania   Melanesia Sove…   1.93e4  8.86e5    70.0
 2 TZ     Tanzania  Africa    Africa    Eastern … Sove…   9.33e5  5.22e7    64.2
 3 EH     Western … Africa    Africa    Northern… Inde…   9.63e4 NA         NA  
 4 CA     Canada    North Am… Americas  Northern… Sove…   1.00e7  3.55e7    82.0
 5 US     United S… North Am… Americas  Northern… Coun…   9.51e6  3.19e8    78.8
 6 KZ     Kazakhst… Asia      Asia      Central … Sove…   2.73e6  1.73e7    71.6
 7 UZ     Uzbekist… Asia      Asia      Central … Sove…   4.61e5  3.08e7    71.0
 8 PG     Papua Ne… Oceania   Oceania   Melanesia Sove…   4.65e5  7.76e6    65.2
 9 ID     Indonesia Asia      Asia      South-Ea… Sove…   1.82e6  2.55e8    68.9
10 AR     Argentina South Am… Americas  South Am… Sove…   2.78e6  4.30e7    76.3
# ℹ 167 more rows
# ℹ 4 more variables: gdpPercap <dbl>, geom <MULTIPOLYGON [°]>,
#   coffee_production_2016 <int>, coffee_production_2017 <int>
…
Use the by argument to specify the joining variables.

The latter approach is demonstrated below on a renamed version of coffee_data.

coffee_renamed = rename(coffee_data, nm = name_long)
world_coffee2 = left_join(world, coffee_renamed, by = join_by(name_long == nm))

world_coffee2

Simple feature collection with 177 features and 12 fields
Geometry type: MULTIPOLYGON
Dimension:     XY
Bounding box:  xmin: -180 ymin: -89.9 xmax: 180 ymax: 83.64513
Geodetic CRS:  WGS 84
# A tibble: 177 × 13
   iso_a2 name_long continent region_un subregion type  area_km2     pop lifeExp
   <chr>  <chr>     <chr>     <chr>     <chr>     <chr>    <dbl>   <dbl>   <dbl>
 1 FJ     Fiji      Oceania   Oceania   Melanesia Sove…   1.93e4  8.86e5    70.0
 2 TZ     Tanzania  Africa    Africa    Eastern … Sove…   9.33e5  5.22e7    64.2
 3 EH     Western … Africa    Africa    Northern… Inde…   9.63e4 NA         NA  
 4 CA     Canada    North Am… Americas  Northern… Sove…   1.00e7  3.55e7    82.0
 5 US     United S… North Am… Americas  Northern… Coun…   9.51e6  3.19e8    78.8
 6 KZ     Kazakhst… Asia      Asia      Central … Sove…   2.73e6  1.73e7    71.6
 7 UZ     Uzbekist… Asia      Asia      Central … Sove…   4.61e5  3.08e7    71.0
 8 PG     Papua Ne… Oceania   Oceania   Melanesia Sove…   4.65e5  7.76e6    65.2
 9 ID     Indonesia Asia      Asia      South-Ea… Sove…   1.82e6  2.55e8    68.9
10 AR     Argentina South Am… Americas  South Am… Sove…   2.78e6  4.30e7    76.3
# ℹ 167 more rows
# ℹ 4 more variables: gdpPercap <dbl>, geom <MULTIPOLYGON [°]>,
#   coffee_production_2016 <int>, coffee_production_2017 <int>
…
